module echo-rest

go 1.16

require (
	github.com/ghodss/yaml v1.0.0 // indirect
	github.com/go-sql-driver/mysql v1.6.0 // indirect
	github.com/labstack/echo/v4 v4.5.0 // indirect
	github.com/tkanos/gonfig v0.0.0-20210106201359-53e13348de2f // indirect
)
